…
    Code
      check_tbl_values_required(tbl = tbl, round_id = round_id, file_path = file_path,
        hub_path = hub_path)
    Output
      <error/check_failure>
      Error:
      ! Required task ID/output type/output type ID combinations missing.  See `missing` attribute for details.

---

    Code
      missing
    Output
      # A tibble: 21 x 7
         location reference_date horizon target_end_date target            output_type
         <chr>    <date>           <int> <date>          <chr>             <chr>      
       1 US       2022-10-22           0 2022-10-22      wk flu hosp rate~ pmf        
       2 US       2022-10-22           0 2022-10-22      wk flu hosp rate~ pmf        
       3 US       2022-10-22           0 2022-10-22      wk flu hosp rate~ pmf        
       4 US       2022-10-22           0 2022-10-22      wk flu hosp rate~ pmf        
       5 US       2022-10-22           1 2022-10-29      wk flu hosp rate~ pmf        
       6 US       2022-10-22           1 2022-10-29      wk flu hosp rate~ pmf        
       7 US       2022-10-22           1 2022-10-29      wk flu hosp rate~ pmf        
       8 US       2022-10-22           1 2022-10-29      wk flu hosp rate~ pmf        
       9 US       2022-10-22           2 2022-11-05      wk flu hosp rate~ pmf        
      10 US       2022-10-22           2 2022-11-05      wk flu hosp rate~ pmf        
      # i 11 more rows
      # i 1 more variable: output_type_id <chr>
…
# (#123) check_tbl_values_required works with all optional output types

    Code
      opt_output_type_ids_result
    Output
      <error/check_failure>
      Error:
      ! Required task ID/output type/output type ID combinations missing.  See `missing` attribute for details.

---

    Code
      opt_output_type_ids_result$missing
    Output
      # A tibble: 168 x 6
         nowcast_date target_date clade location output_type output_type_id
         <date>       <date>      <chr> <chr>    <chr>       <chr>         
       1 2024-10-02   2024-09-01  24A   AL       sample      <NA>          
       2 2024-10-02   2024-09-01  24B   AL       sample      <NA>          
       3 2024-10-02   2024-09-01  24A   CA       sample      <NA>          
       4 2024-10-02   2024-09-01  24B   CA       sample      <NA>          
       5 2024-10-02   2024-09-02  24A   AL       sample      <NA>          
       6 2024-10-02   2024-09-02  24B   AL       sample      <NA>          
       7 2024-10-02   2024-09-02  24A   CA       sample      <NA>          
       8 2024-10-02   2024-09-02  24B   CA       sample      <NA>          
       9 2024-10-02   2024-09-03  24A   AL       sample      <NA>          
      10 2024-10-02   2024-09-03  24B   AL       sample      <NA>          
      # i 158 more rows
…
