…
---

    Code
      submission_tmpl(config_path, round_id = "2022-12-26")
    Output
      # A tibble: 42 x 7
         forecast_date target        horizon location output_type output_type_id value
         <date>        <chr>           <int> <chr>    <chr>       <chr>          <dbl>
       1 2022-12-26    wk ahead inc~       2 US       mean        <NA>              NA
       2 2022-12-26    wk ahead inc~       1 US       mean        <NA>              NA
       3 2022-12-26    wk ahead inc~       2 01       mean        <NA>              NA
       4 2022-12-26    wk ahead inc~       1 01       mean        <NA>              NA
       5 2022-12-26    wk ahead inc~       2 02       mean        <NA>              NA
       6 2022-12-26    wk ahead inc~       1 02       mean        <NA>              NA
       7 2022-12-26    wk ahead inc~       2 US       sample      s1                NA
       8 2022-12-26    wk ahead inc~       1 US       sample      s2                NA
       9 2022-12-26    wk ahead inc~       2 01       sample      s3                NA
      10 2022-12-26    wk ahead inc~       1 01       sample      s4                NA
      # i 32 more rows

---

    Code
      submission_tmpl(config_path, round_id = "2022-12-26")
    Output
      # A tibble: 42 x 7
         forecast_date target        horizon location output_type output_type_id value
         <date>        <chr>           <int> <chr>    <chr>       <chr>          <dbl>
       1 2022-12-26    wk ahead inc~       2 US       mean        <NA>              NA
       2 2022-12-26    wk ahead inc~       1 US       mean        <NA>              NA
       3 2022-12-26    wk ahead inc~       2 01       mean        <NA>              NA
       4 2022-12-26    wk ahead inc~       1 01       mean        <NA>              NA
       5 2022-12-26    wk ahead inc~       2 02       mean        <NA>              NA
       6 2022-12-26    wk ahead inc~       1 02       mean        <NA>              NA
       7 2022-12-26    wk ahead inc~       2 US       sample      1                 NA
       8 2022-12-26    wk ahead inc~       2 01       sample      1                 NA
       9 2022-12-26    wk ahead inc~       2 02       sample      1                 NA
      10 2022-12-26    wk ahead inc~       1 US       sample      2                 NA
      # i 32 more rows
…
---

    Code
      submission_tmpl(config_path, round_id = "2022-12-26", compound_taskid_set = list(
        c("forecast_date", "target"), NULL))
    Output
      # A tibble: 42 x 7
         forecast_date target        horizon location output_type output_type_id value
         <date>        <chr>           <int> <chr>    <chr>       <chr>          <dbl>
       1 2022-12-26    wk ahead inc~       2 US       mean        <NA>              NA
       2 2022-12-26    wk ahead inc~       1 US       mean        <NA>              NA
       3 2022-12-26    wk ahead inc~       2 01       mean        <NA>              NA
       4 2022-12-26    wk ahead inc~       1 01       mean        <NA>              NA
       5 2022-12-26    wk ahead inc~       2 02       mean        <NA>              NA
       6 2022-12-26    wk ahead inc~       1 02       mean        <NA>              NA
       7 2022-12-26    wk ahead inc~       2 US       sample      1                 NA
       8 2022-12-26    wk ahead inc~       1 US       sample      1                 NA
       9 2022-12-26    wk ahead inc~       2 01       sample      1                 NA
      10 2022-12-26    wk ahead inc~       1 01       sample      1                 NA
      # i 32 more rows

---

    Code
      submission_tmpl(config_path, round_id = "2022-12-26", compound_taskid_set = list(
        c("forecast_date"), NULL))
    Output
      # A tibble: 42 x 7
         forecast_date target        horizon location output_type output_type_id value
         <date>        <chr>           <int> <chr>    <chr>       <chr>          <dbl>
       1 2022-12-26    wk ahead inc~       2 US       mean        <NA>              NA
       2 2022-12-26    wk ahead inc~       1 US       mean        <NA>              NA
       3 2022-12-26    wk ahead inc~       2 01       mean        <NA>              NA
       4 2022-12-26    wk ahead inc~       1 01       mean        <NA>              NA
       5 2022-12-26    wk ahead inc~       2 02       mean        <NA>              NA
       6 2022-12-26    wk ahead inc~       1 02       mean        <NA>              NA
       7 2022-12-26    wk ahead inc~       2 US       sample      1                 NA
       8 2022-12-26    wk ahead inc~       1 US       sample      1                 NA
       9 2022-12-26    wk ahead inc~       2 01       sample      1                 NA
      10 2022-12-26    wk ahead inc~       1 01       sample      1                 NA
      # i 32 more rows

---

    Code
      submission_tmpl(config_path, round_id = "2022-12-26", compound_taskid_set = list(
        NULL, NULL))
    Output
      # A tibble: 42 x 7
         forecast_date target        horizon location output_type output_type_id value
         <date>        <chr>           <int> <chr>    <chr>       <chr>          <dbl>
       1 2022-12-26    wk ahead inc~       2 US       mean        <NA>              NA
       2 2022-12-26    wk ahead inc~       1 US       mean        <NA>              NA
       3 2022-12-26    wk ahead inc~       2 01       mean        <NA>              NA
       4 2022-12-26    wk ahead inc~       1 01       mean        <NA>              NA
       5 2022-12-26    wk ahead inc~       2 02       mean        <NA>              NA
       6 2022-12-26    wk ahead inc~       1 02       mean        <NA>              NA
       7 2022-12-26    wk ahead inc~       2 US       sample      1                 NA
       8 2022-12-26    wk ahead inc~       1 US       sample      2                 NA
       9 2022-12-26    wk ahead inc~       2 01       sample      3                 NA
      10 2022-12-26    wk ahead inc~       1 01       sample      4                 NA
      # i 32 more rows
…
---

    Code
      submission_tmpl(config_tasks = read_config_file(system.file("config",
        "tasks.json", package = "hubValidations")), round_id = "2022-12-26")
    Output
      # A tibble: 42 x 7
         forecast_date target        horizon location output_type output_type_id value
         <date>        <chr>           <int> <chr>    <chr>       <chr>          <dbl>
       1 2022-12-26    wk ahead inc~       2 US       mean        <NA>              NA
       2 2022-12-26    wk ahead inc~       1 US       mean        <NA>              NA
       3 2022-12-26    wk ahead inc~       2 01       mean        <NA>              NA
       4 2022-12-26    wk ahead inc~       1 01       mean        <NA>              NA
       5 2022-12-26    wk ahead inc~       2 02       mean        <NA>              NA
       6 2022-12-26    wk ahead inc~       1 02       mean        <NA>              NA
       7 2022-12-26    wk ahead inc~       2 US       sample      s1                NA
       8 2022-12-26    wk ahead inc~       1 US       sample      s2                NA
       9 2022-12-26    wk ahead inc~       2 01       sample      s3                NA
      10 2022-12-26    wk ahead inc~       1 01       sample      s4                NA
      # i 32 more rows
…
# submission_tmpl ignoring derived task ids works

    Code
      submission_tmpl(hub_path, round_id = "2022-10-22", output_types = "sample",
        derived_task_ids = "target_end_date", complete_cases_only = FALSE)
    Output
      # A tibble: 80 x 9
         reference_date target    horizon location variant target_end_date output_type
         <date>         <chr>       <int> <chr>    <chr>   <date>          <chr>      
       1 2022-10-22     wk inc f~       0 US       AA      NA              sample     
       2 2022-10-22     wk inc f~       1 US       AA      NA              sample     
       3 2022-10-22     wk inc f~       2 US       AA      NA              sample     
       4 2022-10-22     wk inc f~       3 US       AA      NA              sample     
       5 2022-10-22     wk inc f~       0 01       AA      NA              sample     
       6 2022-10-22     wk inc f~       1 01       AA      NA              sample     
       7 2022-10-22     wk inc f~       2 01       AA      NA              sample     
       8 2022-10-22     wk inc f~       3 01       AA      NA              sample     
       9 2022-10-22     wk inc f~       0 02       AA      NA              sample     
      10 2022-10-22     wk inc f~       1 02       AA      NA              sample     
      # i 70 more rows
      # i 2 more variables: output_type_id <chr>, value <dbl>
