Create expanded grid of valid task ID and output type value combinations — expand_model_out_grid • hubValidations
…
When sample output types are included in the output and include_sample_ids = TRUE,
the output_type_id column contains example sample indexes which are useful
for identifying the compound task ID structure of multivariate sampling
distributions in particular, i.e. which combinations of task ID values
represent individual samples.

    Examples

hub_con <- hubData::connect_hub(
  system.file("testhubs/flusight", package = "hubUtils")
)
config_tasks <- attr(hub_con, "config_tasks")
expand_model_out_grid(config_tasks, round_id = "2023-01-02")
#> # A tibble: 3,132 × 6
#>    forecast_date target              horizon location output_type output_type_id
#>    <date>        <chr>                 <int> <chr>    <chr>       <chr>         
#>  1 2023-01-02    wk flu hosp rate c…       2 US       pmf         large_decrease
#>  2 2023-01-02    wk flu hosp rate c…       1 US       pmf         large_decrease
#>  3 2023-01-02    wk flu hosp rate c…       2 01       pmf         large_decrease
#>  4 2023-01-02    wk flu hosp rate c…       1 01       pmf         large_decrease
#>  5 2023-01-02    wk flu hosp rate c…       2 02       pmf         large_decrease
#>  6 2023-01-02    wk flu hosp rate c…       1 02       pmf         large_decrease
#>  7 2023-01-02    wk flu hosp rate c…       2 04       pmf         large_decrease
#>  8 2023-01-02    wk flu hosp rate c…       1 04       pmf         large_decrease
#>  9 2023-01-02    wk flu hosp rate c…       2 05       pmf         large_decrease
#> 10 2023-01-02    wk flu hosp rate c…       1 05       pmf         large_decrease
#> # ℹ 3,122 more rows
expand_model_out_grid(
  config_tasks,
  round_id = "2023-01-02",
  required_vals_only = TRUE
)
#> # A tibble: 28 × 5
#>    forecast_date horizon location output_type output_type_id
#>    <date>          <int> <chr>    <chr>       <chr>         
#>  1 2023-01-02          2 US       pmf         large_decrease
#>  2 2023-01-02          2 US       pmf         decrease      
#>  3 2023-01-02          2 US       pmf         stable        
#>  4 2023-01-02          2 US       pmf         increase      
#>  5 2023-01-02          2 US       pmf         large_increase
#>  6 2023-01-02          2 US       quantile    0.01          
#>  7 2023-01-02          2 US       quantile    0.025         
#>  8 2023-01-02          2 US       quantile    0.05          
#>  9 2023-01-02          2 US       quantile    0.1           
#> 10 2023-01-02          2 US       quantile    0.15          
#> # ℹ 18 more rows
# Specifying a round in a hub with multiple round configurations.
hub_con <- hubData::connect_hub(
  system.file("testhubs/simple", package = "hubUtils")
)
config_tasks <- attr(hub_con, "config_tasks")
expand_model_out_grid(config_tasks, round_id = "2022-10-01")
#> # A tibble: 5,184 × 6
#>    origin_date target          horizon location output_type output_type_id
#>    <date>      <chr>             <int> <chr>    <chr>                <dbl>
#>  1 2022-10-01  wk inc flu hosp       1 US       mean                    NA
#>  2 2022-10-01  wk inc flu hosp       2 US       mean                    NA
#>  3 2022-10-01  wk inc flu hosp       3 US       mean                    NA
#>  4 2022-10-01  wk inc flu hosp       4 US       mean                    NA
#>  5 2022-10-01  wk inc flu hosp       1 01       mean                    NA
#>  6 2022-10-01  wk inc flu hosp       2 01       mean                    NA
#>  7 2022-10-01  wk inc flu hosp       3 01       mean                    NA
#>  8 2022-10-01  wk inc flu hosp       4 01       mean                    NA
#>  9 2022-10-01  wk inc flu hosp       1 02       mean                    NA
#> 10 2022-10-01  wk inc flu hosp       2 02       mean                    NA
#> # ℹ 5,174 more rows
# Later round_id maps to round config that includes additional task ID 'age_group'.
expand_model_out_grid(config_tasks, round_id = "2022-10-29")
#> # A tibble: 25,920 × 7
#>    origin_date target      horizon location age_group output_type output_type_id
#>    <date>      <chr>         <int> <chr>    <chr>     <chr>                <dbl>
#>  1 2022-10-29  wk inc flu…       1 US       65+       mean                    NA
#>  2 2022-10-29  wk inc flu…       2 US       65+       mean                    NA
#>  3 2022-10-29  wk inc flu…       3 US       65+       mean                    NA
#>  4 2022-10-29  wk inc flu…       4 US       65+       mean                    NA
#>  5 2022-10-29  wk inc flu…       1 01       65+       mean                    NA
#>  6 2022-10-29  wk inc flu…       2 01       65+       mean                    NA
#>  7 2022-10-29  wk inc flu…       3 01       65+       mean                    NA
#>  8 2022-10-29  wk inc flu…       4 01       65+       mean                    NA
#>  9 2022-10-29  wk inc flu…       1 02       65+       mean                    NA
#> 10 2022-10-29  wk inc flu…       2 02       65+       mean                    NA
#> # ℹ 25,910 more rows
# Coerce all columns to character
expand_model_out_grid(config_tasks,
  round_id = "2022-10-29",
  all_character = TRUE
)
#> # A tibble: 25,920 × 7
#>    origin_date target      horizon location age_group output_type output_type_id
#>    <chr>       <chr>       <chr>   <chr>    <chr>     <chr>       <chr>         
#>  1 2022-10-29  wk inc flu… 1       US       65+       mean        NA            
#>  2 2022-10-29  wk inc flu… 2       US       65+       mean        NA            
#>  3 2022-10-29  wk inc flu… 3       US       65+       mean        NA            
#>  4 2022-10-29  wk inc flu… 4       US       65+       mean        NA            
#>  5 2022-10-29  wk inc flu… 1       01       65+       mean        NA            
#>  6 2022-10-29  wk inc flu… 2       01       65+       mean        NA            
#>  7 2022-10-29  wk inc flu… 3       01       65+       mean        NA            
#>  8 2022-10-29  wk inc flu… 4       01       65+       mean        NA            
#>  9 2022-10-29  wk inc flu… 1       02       65+       mean        NA            
#> 10 2022-10-29  wk inc flu… 2       02       65+       mean        NA            
#> # ℹ 25,910 more rows
…
#> $origin_date <string>
#> $target <string>
#> $horizon <string>
#> $location <string>
#> $age_group <string>
#> $output_type <string>
#> $output_type_id <string>
# Hub with sample output type
config_tasks <- read_config_file(system.file("config", "tasks.json",
  package = "hubValidations"
))
expand_model_out_grid(config_tasks,
  round_id = "2022-12-26"
)
#> # A tibble: 42 × 6
#>    forecast_date target              horizon location output_type output_type_id
#>    <date>        <chr>                 <int> <chr>    <chr>       <chr>         
#>  1 2022-12-26    wk ahead inc flu h…       2 US       sample      NA            
#>  2 2022-12-26    wk ahead inc flu h…       1 US       sample      NA            
#>  3 2022-12-26    wk ahead inc flu h…       2 01       sample      NA            
#>  4 2022-12-26    wk ahead inc flu h…       1 01       sample      NA            
#>  5 2022-12-26    wk ahead inc flu h…       2 02       sample      NA            
#>  6 2022-12-26    wk ahead inc flu h…       1 02       sample      NA            
#>  7 2022-12-26    wk ahead inc flu h…       2 US       mean        NA            
#>  8 2022-12-26    wk ahead inc flu h…       1 US       mean        NA            
#>  9 2022-12-26    wk ahead inc flu h…       2 01       mean        NA            
#> 10 2022-12-26    wk ahead inc flu h…       1 01       mean        NA            
#> # ℹ 32 more rows
# Include sample IDS
expand_model_out_grid(config_tasks,
  round_id = "2022-12-26",
  include_sample_ids = TRUE
)
#> # A tibble: 42 × 6
#>    forecast_date target              horizon location output_type output_type_id
#>    <date>        <chr>                 <int> <chr>    <chr>       <chr>         
#>  1 2022-12-26    wk ahead inc flu h…       2 US       mean        NA            
#>  2 2022-12-26    wk ahead inc flu h…       1 US       mean        NA            
#>  3 2022-12-26    wk ahead inc flu h…       2 01       mean        NA            
#>  4 2022-12-26    wk ahead inc flu h…       1 01       mean        NA            
#>  5 2022-12-26    wk ahead inc flu h…       2 02       mean        NA            
#>  6 2022-12-26    wk ahead inc flu h…       1 02       mean        NA            
#>  7 2022-12-26    wk ahead inc flu h…       2 US       sample      s1            
#>  8 2022-12-26    wk ahead inc flu h…       1 US       sample      s2            
#>  9 2022-12-26    wk ahead inc flu h…       2 01       sample      s3            
#> 10 2022-12-26    wk ahead inc flu h…       1 01       sample      s4            
#> # ℹ 32 more rows
# Hub with sample output type and compound task ID structure
config_tasks <- read_config_file(
  system.file("config", "tasks-comp-tid.json", package = "hubValidations")
)
expand_model_out_grid(config_tasks,
  round_id = "2022-12-26",
  include_sample_ids = TRUE
)
#> # A tibble: 42 × 6
#>    forecast_date target              horizon location output_type output_type_id
#>    <date>        <chr>                 <int> <chr>    <chr>       <chr>         
#>  1 2022-12-26    wk ahead inc flu h…       2 US       mean        NA            
#>  2 2022-12-26    wk ahead inc flu h…       1 US       mean        NA            
#>  3 2022-12-26    wk ahead inc flu h…       2 01       mean        NA            
#>  4 2022-12-26    wk ahead inc flu h…       1 01       mean        NA            
#>  5 2022-12-26    wk ahead inc flu h…       2 02       mean        NA            
#>  6 2022-12-26    wk ahead inc flu h…       1 02       mean        NA            
#>  7 2022-12-26    wk ahead inc flu h…       2 US       sample      1             
#>  8 2022-12-26    wk ahead inc flu h…       2 01       sample      1             
#>  9 2022-12-26    wk ahead inc flu h…       2 02       sample      1             
#> 10 2022-12-26    wk ahead inc flu h…       1 US       sample      2             
#> # ℹ 32 more rows
# Override config compound task ID set
# Create coarser compound task ID set for the first modeling task which contains
# samples
expand_model_out_grid(config_tasks,
  round_id = "2022-12-26",
  include_sample_ids = TRUE,
  compound_taskid_set = list(
    c("forecast_date", "target"),
    NULL
  )
)
#> # A tibble: 42 × 6
#>    forecast_date target              horizon location output_type output_type_id
#>    <date>        <chr>                 <int> <chr>    <chr>       <chr>         
#>  1 2022-12-26    wk ahead inc flu h…       2 US       mean        NA            
#>  2 2022-12-26    wk ahead inc flu h…       1 US       mean        NA            
#>  3 2022-12-26    wk ahead inc flu h…       2 01       mean        NA            
#>  4 2022-12-26    wk ahead inc flu h…       1 01       mean        NA            
#>  5 2022-12-26    wk ahead inc flu h…       2 02       mean        NA            
#>  6 2022-12-26    wk ahead inc flu h…       1 02       mean        NA            
#>  7 2022-12-26    wk ahead inc flu h…       2 US       sample      1             
#>  8 2022-12-26    wk ahead inc flu h…       1 US       sample      1             
#>  9 2022-12-26    wk ahead inc flu h…       2 01       sample      1             
#> 10 2022-12-26    wk ahead inc flu h…       1 01       sample      1             
#> # ℹ 32 more rows
expand_model_out_grid(config_tasks,
  round_id = "2022-12-26",
  include_sample_ids = TRUE,
  compound_taskid_set = list(
    NULL,
    NULL
  )
)
#> # A tibble: 42 × 6
#>    forecast_date target              horizon location output_type output_type_id
#>    <date>        <chr>                 <int> <chr>    <chr>       <chr>         
#>  1 2022-12-26    wk ahead inc flu h…       2 US       mean        NA            
#>  2 2022-12-26    wk ahead inc flu h…       1 US       mean        NA            
#>  3 2022-12-26    wk ahead inc flu h…       2 01       mean        NA            
#>  4 2022-12-26    wk ahead inc flu h…       1 01       mean        NA            
#>  5 2022-12-26    wk ahead inc flu h…       2 02       mean        NA            
#>  6 2022-12-26    wk ahead inc flu h…       1 02       mean        NA            
#>  7 2022-12-26    wk ahead inc flu h…       2 US       sample      1             
#>  8 2022-12-26    wk ahead inc flu h…       1 US       sample      2             
#>  9 2022-12-26    wk ahead inc flu h…       2 01       sample      3             
#> 10 2022-12-26    wk ahead inc flu h…       1 01       sample      4             
#> # ℹ 32 more rows
# Subset output types
config_tasks <- read_config(
  system.file("testhubs", "samples", package = "hubValidations")
)
expand_model_out_grid(config_tasks,
  round_id = "2022-10-29",
  include_sample_ids = TRUE,
  bind_model_tasks = FALSE,
  output_types = c("sample", "pmf"),
)
#> [[1]]
#> # A tibble: 2,560 × 7
#>    reference_date target            horizon location target_end_date output_type
#>    <date>         <chr>               <int> <chr>    <date>          <chr>      
#>  1 2022-10-29     wk flu hosp rate…       0 US       2022-10-22      pmf        
#>  2 2022-10-29     wk flu hosp rate…       1 US       2022-10-22      pmf        
#>  3 2022-10-29     wk flu hosp rate…       2 US       2022-10-22      pmf        
#>  4 2022-10-29     wk flu hosp rate…       3 US       2022-10-22      pmf        
#>  5 2022-10-29     wk flu hosp rate…       0 01       2022-10-22      pmf        
#>  6 2022-10-29     wk flu hosp rate…       1 01       2022-10-22      pmf        
#>  7 2022-10-29     wk flu hosp rate…       2 01       2022-10-22      pmf        
#>  8 2022-10-29     wk flu hosp rate…       3 01       2022-10-22      pmf        
#>  9 2022-10-29     wk flu hosp rate…       0 02       2022-10-22      pmf        
#> 10 2022-10-29     wk flu hosp rate…       1 02       2022-10-22      pmf        
#> # ℹ 2,550 more rows
#> # ℹ 1 more variable: output_type_id <chr>
#> 
#> [[2]]
#> # A tibble: 640 × 7
#>    reference_date target          horizon location target_end_date output_type
#>    <date>         <chr>             <int> <chr>    <date>          <chr>      
#>  1 2022-10-29     wk inc flu hosp       0 US       2022-10-22      sample     
#>  2 2022-10-29     wk inc flu hosp       1 US       2022-10-22      sample     
#>  3 2022-10-29     wk inc flu hosp       2 US       2022-10-22      sample     
#>  4 2022-10-29     wk inc flu hosp       3 US       2022-10-22      sample     
#>  5 2022-10-29     wk inc flu hosp       0 US       2022-10-29      sample     
#>  6 2022-10-29     wk inc flu hosp       1 US       2022-10-29      sample     
#>  7 2022-10-29     wk inc flu hosp       2 US       2022-10-29      sample     
#>  8 2022-10-29     wk inc flu hosp       3 US       2022-10-29      sample     
#>  9 2022-10-29     wk inc flu hosp       0 US       2022-11-05      sample     
#> 10 2022-10-29     wk inc flu hosp       1 US       2022-11-05      sample     
#> # ℹ 630 more rows
#> # ℹ 1 more variable: output_type_id <chr>
#> 
expand_model_out_grid(config_tasks,
  round_id = "2022-10-29",
  include_sample_ids = TRUE,
  bind_model_tasks = TRUE,
  output_types = "sample",
)
#> # A tibble: 640 × 7
#>    reference_date target          horizon location target_end_date output_type
#>    <date>         <chr>             <int> <chr>    <date>          <chr>      
#>  1 2022-10-29     wk inc flu hosp       0 US       2022-10-22      sample     
#>  2 2022-10-29     wk inc flu hosp       1 US       2022-10-22      sample     
#>  3 2022-10-29     wk inc flu hosp       2 US       2022-10-22      sample     
#>  4 2022-10-29     wk inc flu hosp       3 US       2022-10-22      sample     
#>  5 2022-10-29     wk inc flu hosp       0 US       2022-10-29      sample     
#>  6 2022-10-29     wk inc flu hosp       1 US       2022-10-29      sample     
#>  7 2022-10-29     wk inc flu hosp       2 US       2022-10-29      sample     
#>  8 2022-10-29     wk inc flu hosp       3 US       2022-10-29      sample     
#>  9 2022-10-29     wk inc flu hosp       0 US       2022-11-05      sample     
#> 10 2022-10-29     wk inc flu hosp       1 US       2022-11-05      sample     
#> # ℹ 630 more rows
#> # ℹ 1 more variable: output_type_id <chr>
…
#> 18 2022-10-29     wk inc flu hosp       1 05       NA              sample     
#> 19 2022-10-29     wk inc flu hosp       2 05       NA              sample     
#> 20 2022-10-29     wk inc flu hosp       3 05       NA              sample     
#> # ℹ 1 more variable: output_type_id <chr>
#> 
# Return only required values
hub_path <- system.file("testhubs", "v4", "simple", package = "hubUtils")
config_tasks <- read_config(hub_path)
# Return required output types and output_types_ids only
expand_model_out_grid(
  config_tasks = config_tasks,
  round_id = "2022-10-22",
  required_vals_only = TRUE
)
#> # A tibble: 23 × 6
#>    origin_date target          horizon age_group output_type output_type_id
#>    <date>      <chr>             <int> <chr>     <chr>                <dbl>
#>  1 2022-10-22  wk inc flu hosp       1 65+       quantile             0.01 
#>  2 2022-10-22  wk inc flu hosp       1 65+       quantile             0.025
#>  3 2022-10-22  wk inc flu hosp       1 65+       quantile             0.05 
#>  4 2022-10-22  wk inc flu hosp       1 65+       quantile             0.1  
#>  5 2022-10-22  wk inc flu hosp       1 65+       quantile             0.15 
#>  6 2022-10-22  wk inc flu hosp       1 65+       quantile             0.2  
#>  7 2022-10-22  wk inc flu hosp       1 65+       quantile             0.25 
#>  8 2022-10-22  wk inc flu hosp       1 65+       quantile             0.3  
#>  9 2022-10-22  wk inc flu hosp       1 65+       quantile             0.35 
#> 10 2022-10-22  wk inc flu hosp       1 65+       quantile             0.4  
#> # ℹ 13 more rows
# Force all output types to be required
expand_model_out_grid(
  config_tasks = config_tasks,
  round_id = "2022-10-22",
  required_vals_only = TRUE,
  force_output_types = TRUE
)
#> # A tibble: 24 × 6
#>    origin_date target          horizon age_group output_type output_type_id
#>    <date>      <chr>             <int> <chr>     <chr>                <dbl>
#>  1 2022-10-22  wk inc flu hosp       1 65+       mean                NA    
#>  2 2022-10-22  wk inc flu hosp       1 65+       quantile             0.01 
#>  3 2022-10-22  wk inc flu hosp       1 65+       quantile             0.025
#>  4 2022-10-22  wk inc flu hosp       1 65+       quantile             0.05 
#>  5 2022-10-22  wk inc flu hosp       1 65+       quantile             0.1  
#>  6 2022-10-22  wk inc flu hosp       1 65+       quantile             0.15 
#>  7 2022-10-22  wk inc flu hosp       1 65+       quantile             0.2  
#>  8 2022-10-22  wk inc flu hosp       1 65+       quantile             0.25 
#>  9 2022-10-22  wk inc flu hosp       1 65+       quantile             0.3  
#> 10 2022-10-22  wk inc flu hosp       1 65+       quantile             0.35 
#> # ℹ 14 more rows
…
