…
## Value

a tibble of contents of the target data file.

## Examples

``` r
# download example hub
hub_path <- system.file("testhubs/v5/target_file",
  package = "hubUtils"
)
# read in time-series file
read_target_file("time-series.csv", hub_path)
#> # A tibble: 66 × 4
#>    target_end_date target       location observation
#>    <date>          <chr>        <chr>          <dbl>
#>  1 2022-10-22      flu_hosp_inc 02                 3
#>  2 2022-10-22      flu_hosp_inc 01               141
#>  3 2022-10-22      flu_hosp_inc US              2380
#>  4 2022-10-29      flu_hosp_inc 02                14
#>  5 2022-10-29      flu_hosp_inc 01               262
#>  6 2022-10-29      flu_hosp_inc US              4353
#>  7 2022-11-05      flu_hosp_inc 02                10
#>  8 2022-11-05      flu_hosp_inc 01               360
#>  9 2022-11-05      flu_hosp_inc US              6571
#> 10 2022-11-12      flu_hosp_inc 02                20
#> # ℹ 56 more rows
read_target_file("time-series.csv", hub_path, coerce_types = "chr")
#> # A tibble: 66 × 4
#>    target_end_date target       location observation
#>    <chr>           <chr>        <chr>    <chr>      
#>  1 2022-10-22      flu_hosp_inc 02       3          
#>  2 2022-10-22      flu_hosp_inc 01       141        
#>  3 2022-10-22      flu_hosp_inc US       2380       
#>  4 2022-10-29      flu_hosp_inc 02       14         
#>  5 2022-10-29      flu_hosp_inc 01       262        
#>  6 2022-10-29      flu_hosp_inc US       4353       
#>  7 2022-11-05      flu_hosp_inc 02       10         
#>  8 2022-11-05      flu_hosp_inc 01       360        
#>  9 2022-11-05      flu_hosp_inc US       6571       
#> 10 2022-11-12      flu_hosp_inc 02       20         
#> # ℹ 56 more rows
# read in oracle-output file
read_target_file("oracle-output.csv", hub_path)
#> # A tibble: 627 × 6
#>    location target_end_date target       output_type output_type_id oracle_value
#>    <chr>    <date>          <chr>        <chr>       <chr>                 <dbl>
#>  1 US       2022-10-22      flu_hosp_ra… cdf         1                         1
#>  2 US       2022-10-22      flu_hosp_ra… cdf         2                         1
#>  3 US       2022-10-22      flu_hosp_ra… cdf         3                         1
#>  4 US       2022-10-22      flu_hosp_ra… cdf         4                         1
#>  5 US       2022-10-22      flu_hosp_ra… cdf         5                         1
#>  6 US       2022-10-22      flu_hosp_ra… cdf         6                         1
#>  7 US       2022-10-22      flu_hosp_ra… cdf         7                         1
#>  8 US       2022-10-22      flu_hosp_ra… cdf         8                         1
#>  9 US       2022-10-22      flu_hosp_ra… cdf         9                         1
#> 10 US       2022-10-22      flu_hosp_ra… cdf         10                        1
#> # ℹ 617 more rows
read_target_file("oracle-output.csv", hub_path, coerce_types = "chr")
#> # A tibble: 627 × 6
#>    location target_end_date target       output_type output_type_id oracle_value
#>    <chr>    <chr>           <chr>        <chr>       <chr>          <chr>       
#>  1 US       2022-10-22      flu_hosp_ra… cdf         1              1           
#>  2 US       2022-10-22      flu_hosp_ra… cdf         2              1           
#>  3 US       2022-10-22      flu_hosp_ra… cdf         3              1           
#>  4 US       2022-10-22      flu_hosp_ra… cdf         4              1           
#>  5 US       2022-10-22      flu_hosp_ra… cdf         5              1           
#>  6 US       2022-10-22      flu_hosp_ra… cdf         6              1           
#>  7 US       2022-10-22      flu_hosp_ra… cdf         7              1           
#>  8 US       2022-10-22      flu_hosp_ra… cdf         8              1           
#>  9 US       2022-10-22      flu_hosp_ra… cdf         9              1           
#> 10 US       2022-10-22      flu_hosp_ra… cdf         10             1           
#> # ℹ 617 more rows
```
