…
When a round is set to `round_id_from_variable: true`, the value of the
task ID from which round IDs are derived (i.e. the task ID specified in
`round_id` property of `config_tasks`) is set to the value of the
`round_id` argument in the returned output.

## Examples

``` r
hub_path <- system.file("testhubs/flusight", package = "hubUtils")
submission_tmpl(hub_path, round_id = "2023-01-02")
#> # A tibble: 3,132 × 7
#>    forecast_date target        horizon location output_type output_type_id value
#>    <date>        <chr>           <int> <chr>    <chr>       <chr>          <dbl>
#>  1 2023-01-02    wk flu hosp …       2 US       pmf         large_decrease    NA
#>  2 2023-01-02    wk flu hosp …       1 US       pmf         large_decrease    NA
#>  3 2023-01-02    wk flu hosp …       2 01       pmf         large_decrease    NA
#>  4 2023-01-02    wk flu hosp …       1 01       pmf         large_decrease    NA
#>  5 2023-01-02    wk flu hosp …       2 02       pmf         large_decrease    NA
#>  6 2023-01-02    wk flu hosp …       1 02       pmf         large_decrease    NA
#>  7 2023-01-02    wk flu hosp …       2 04       pmf         large_decrease    NA
#>  8 2023-01-02    wk flu hosp …       1 04       pmf         large_decrease    NA
#>  9 2023-01-02    wk flu hosp …       2 05       pmf         large_decrease    NA
#> 10 2023-01-02    wk flu hosp …       1 05       pmf         large_decrease    NA
#> # ℹ 3,122 more rows
…
)
#> # A tibble: 0 × 7
#> # ℹ 7 variables: forecast_date <date>, target <chr>, horizon <int>,
#> #   location <chr>, output_type <chr>, output_type_id <chr>, value <dbl>
submission_tmpl(
  hub_path,
  round_id = "2023-01-02",
  required_vals_only = TRUE,
  complete_cases_only = FALSE
)
#> ! Column "target" whose values are all optional included as all `NA` column.
#> ! Round contains more than one modeling task (n = 2)
#> ℹ See Hub's tasks.json file for details of optional task
#>   ID/output_type/output_type ID value combinations.
#> # A tibble: 28 × 7
#>    forecast_date target horizon location output_type output_type_id value
#>    <date>        <chr>    <int> <chr>    <chr>       <chr>          <dbl>
#>  1 2023-01-02    NA           2 US       pmf         large_decrease    NA
#>  2 2023-01-02    NA           2 US       pmf         decrease          NA
#>  3 2023-01-02    NA           2 US       pmf         stable            NA
#>  4 2023-01-02    NA           2 US       pmf         increase          NA
#>  5 2023-01-02    NA           2 US       pmf         large_increase    NA
#>  6 2023-01-02    NA           2 US       quantile    0.01              NA
#>  7 2023-01-02    NA           2 US       quantile    0.025             NA
#>  8 2023-01-02    NA           2 US       quantile    0.05              NA
#>  9 2023-01-02    NA           2 US       quantile    0.1               NA
#> 10 2023-01-02    NA           2 US       quantile    0.15              NA
#> # ℹ 18 more rows
# Specify a round in a hub with multiple rounds
hub_path <- system.file("testhubs/simple", package = "hubUtils")
submission_tmpl(hub_path, round_id = "2022-10-01")
#> # A tibble: 5,184 × 7
#>    origin_date target          horizon location output_type output_type_id value
#>    <date>      <chr>             <int> <chr>    <chr>                <dbl> <int>
#>  1 2022-10-01  wk inc flu hosp       1 US       mean                    NA    NA
#>  2 2022-10-01  wk inc flu hosp       2 US       mean                    NA    NA
#>  3 2022-10-01  wk inc flu hosp       3 US       mean                    NA    NA
#>  4 2022-10-01  wk inc flu hosp       4 US       mean                    NA    NA
#>  5 2022-10-01  wk inc flu hosp       1 01       mean                    NA    NA
#>  6 2022-10-01  wk inc flu hosp       2 01       mean                    NA    NA
#>  7 2022-10-01  wk inc flu hosp       3 01       mean                    NA    NA
#>  8 2022-10-01  wk inc flu hosp       4 01       mean                    NA    NA
#>  9 2022-10-01  wk inc flu hosp       1 02       mean                    NA    NA
#> 10 2022-10-01  wk inc flu hosp       2 02       mean                    NA    NA
#> # ℹ 5,174 more rows
submission_tmpl(hub_path, round_id = "2022-10-29")
#> # A tibble: 25,920 × 8
#>    origin_date target      horizon location age_group output_type output_type_id
#>    <date>      <chr>         <int> <chr>    <chr>     <chr>                <dbl>
#>  1 2022-10-29  wk inc flu…       1 US       65+       mean                    NA
#>  2 2022-10-29  wk inc flu…       2 US       65+       mean                    NA
#>  3 2022-10-29  wk inc flu…       3 US       65+       mean                    NA
#>  4 2022-10-29  wk inc flu…       4 US       65+       mean                    NA
#>  5 2022-10-29  wk inc flu…       1 01       65+       mean                    NA
#>  6 2022-10-29  wk inc flu…       2 01       65+       mean                    NA
#>  7 2022-10-29  wk inc flu…       3 01       65+       mean                    NA
#>  8 2022-10-29  wk inc flu…       4 01       65+       mean                    NA
#>  9 2022-10-29  wk inc flu…       1 02       65+       mean                    NA
#> 10 2022-10-29  wk inc flu…       2 02       65+       mean                    NA
#> # ℹ 25,910 more rows
#> # ℹ 1 more variable: value <int>
# Subset for a specific output type
hub_path <- system.file("testhubs", "samples", package = "hubValidations")
submission_tmpl(
  hub_path,
  round_id = "2022-12-17",
  output_types = "sample"
)
#> # A tibble: 640 × 8
#>    reference_date target          horizon location target_end_date output_type
#>    <date>         <chr>             <int> <chr>    <date>          <chr>      
#>  1 2022-12-17     wk inc flu hosp       0 US       2022-10-22      sample     
#>  2 2022-12-17     wk inc flu hosp       1 US       2022-10-22      sample     
#>  3 2022-12-17     wk inc flu hosp       2 US       2022-10-22      sample     
#>  4 2022-12-17     wk inc flu hosp       3 US       2022-10-22      sample     
#>  5 2022-12-17     wk inc flu hosp       0 US       2022-10-29      sample     
#>  6 2022-12-17     wk inc flu hosp       1 US       2022-10-29      sample     
#>  7 2022-12-17     wk inc flu hosp       2 US       2022-10-29      sample     
#>  8 2022-12-17     wk inc flu hosp       3 US       2022-10-29      sample     
#>  9 2022-12-17     wk inc flu hosp       0 US       2022-11-05      sample     
#> 10 2022-12-17     wk inc flu hosp       1 US       2022-11-05      sample     
#> # ℹ 630 more rows
#> # ℹ 2 more variables: output_type_id <chr>, value <dbl>
# Create a template from the path to a tasks config file
config_path <- system.file("config", "tasks.json",
  package = "hubValidations"
)
submission_tmpl(
  config_path,
  round_id = "2022-12-26"
)
#> # A tibble: 42 × 7
#>    forecast_date target        horizon location output_type output_type_id value
#>    <date>        <chr>           <int> <chr>    <chr>       <chr>          <dbl>
#>  1 2022-12-26    wk ahead inc…       2 US       mean        NA                NA
#>  2 2022-12-26    wk ahead inc…       1 US       mean        NA                NA
#>  3 2022-12-26    wk ahead inc…       2 01       mean        NA                NA
#>  4 2022-12-26    wk ahead inc…       1 01       mean        NA                NA
#>  5 2022-12-26    wk ahead inc…       2 02       mean        NA                NA
#>  6 2022-12-26    wk ahead inc…       1 02       mean        NA                NA
#>  7 2022-12-26    wk ahead inc…       2 US       sample      s1                NA
#>  8 2022-12-26    wk ahead inc…       1 US       sample      s2                NA
#>  9 2022-12-26    wk ahead inc…       2 01       sample      s3                NA
#> 10 2022-12-26    wk ahead inc…       1 01       sample      s4                NA
#> # ℹ 32 more rows
…
#> 3 2022-12-26    wk ahead inc …       2 01       sample      1                 NA
#> 4 2022-12-26    wk ahead inc …       1 01       sample      1                 NA
#> 5 2022-12-26    wk ahead inc …       2 02       sample      1                 NA
#> 6 2022-12-26    wk ahead inc …       1 02       sample      1                 NA
# Derive a template with ignored derived task ID. Useful to avoid creating
# a template with invalid derived task ID value combinations.
hub_path <- system.file("testhubs", "flusight", package = "hubValidations")
submission_tmpl(
  hub_path,
  round_id = "2022-12-12",
  output_types = "pmf",
  derived_task_ids = "target_end_date",
  complete_cases_only = FALSE
)
#> # A tibble: 540 × 8
#>    forecast_date target_end_date target             horizon location output_type
#>    <date>        <date>          <chr>                <int> <chr>    <chr>      
#>  1 2022-12-12    NA              wk flu hosp rate …       2 US       pmf        
#>  2 2022-12-12    NA              wk flu hosp rate …       1 US       pmf        
#>  3 2022-12-12    NA              wk flu hosp rate …       2 01       pmf        
#>  4 2022-12-12    NA              wk flu hosp rate …       1 01       pmf        
#>  5 2022-12-12    NA              wk flu hosp rate …       2 02       pmf        
#>  6 2022-12-12    NA              wk flu hosp rate …       1 02       pmf        
#>  7 2022-12-12    NA              wk flu hosp rate …       2 04       pmf        
#>  8 2022-12-12    NA              wk flu hosp rate …       1 04       pmf        
#>  9 2022-12-12    NA              wk flu hosp rate …       2 05       pmf        
#> 10 2022-12-12    NA              wk flu hosp rate …       1 05       pmf        
#> # ℹ 530 more rows
#> # ℹ 2 more variables: output_type_id <chr>, value <dbl>
…
submission_tmpl(
  hub_path,
  round_id = "2022-12-12",
  required_vals_only = TRUE,
  output_types = c("pmf", "quantile", "mean"),
  force_output_types = TRUE,
  derived_task_ids = "target_end_date",
  complete_cases_only = FALSE
)
#> ! Columns "target_end_date" and "target" whose values are all optional included
#>   as all `NA` columns.
#> ! Round contains more than one modeling task (n = 2)
#> ℹ See Hub's tasks.json file for details of optional task
#>   ID/output_type/output_type ID value combinations.
#> # A tibble: 29 × 8
#>    forecast_date target_end_date target horizon location output_type
#>    <date>        <date>          <chr>    <int> <chr>    <chr>      
#>  1 2022-12-12    NA              NA           2 US       pmf        
#>  2 2022-12-12    NA              NA           2 US       pmf        
#>  3 2022-12-12    NA              NA           2 US       pmf        
#>  4 2022-12-12    NA              NA           2 US       pmf        
#>  5 2022-12-12    NA              NA           2 US       pmf        
#>  6 2022-12-12    NA              NA           2 US       quantile   
#>  7 2022-12-12    NA              NA           2 US       quantile   
#>  8 2022-12-12    NA              NA           2 US       quantile   
#>  9 2022-12-12    NA              NA           2 US       quantile   
#> 10 2022-12-12    NA              NA           2 US       quantile   
#> # ℹ 19 more rows
#> # ℹ 2 more variables: output_type_id <chr>, value <dbl>
# Create a template from a URL to fully configured hub repository on GitHub
submission_tmpl(
  path = "https://github.com/hubverse-org/example-simple-forecast-hub",
  round_id = "2022-11-28",
  output_types = "quantile"
)
#> # A tibble: 26,082 × 7
#>    origin_date target         horizon location output_type output_type_id value
#>    <date>      <chr>            <int> <chr>    <chr>                <dbl> <int>
#>  1 2022-11-28  inc covid hosp      -6 US       quantile              0.01    NA
#>  2 2022-11-28  inc covid hosp      -5 US       quantile              0.01    NA
#>  3 2022-11-28  inc covid hosp      -4 US       quantile              0.01    NA
#>  4 2022-11-28  inc covid hosp      -3 US       quantile              0.01    NA
#>  5 2022-11-28  inc covid hosp      -2 US       quantile              0.01    NA
#>  6 2022-11-28  inc covid hosp      -1 US       quantile              0.01    NA
#>  7 2022-11-28  inc covid hosp       0 US       quantile              0.01    NA
#>  8 2022-11-28  inc covid hosp       1 US       quantile              0.01    NA
#>  9 2022-11-28  inc covid hosp       2 US       quantile              0.01    NA
#> 10 2022-11-28  inc covid hosp       3 US       quantile              0.01    NA
#> # ℹ 26,072 more rows
# Create a template from a URL to the raw contents of a tasks.json file on
# GitHub
config_raw_url <- paste0(
  "https://raw.githubusercontent.com/hubverse-org/",
  "example-simple-forecast-hub/refs/heads/main/hub-config/tasks.json"
)
submission_tmpl(
  path = config_raw_url,
  round_id = "2022-11-28",
  output_types = "quantile"
)
#> # A tibble: 26,082 × 7
#>    origin_date target         horizon location output_type output_type_id value
#>    <date>      <chr>            <int> <chr>    <chr>                <dbl> <int>
#>  1 2022-11-28  inc covid hosp      -6 US       quantile              0.01    NA
#>  2 2022-11-28  inc covid hosp      -5 US       quantile              0.01    NA
#>  3 2022-11-28  inc covid hosp      -4 US       quantile              0.01    NA
#>  4 2022-11-28  inc covid hosp      -3 US       quantile              0.01    NA
#>  5 2022-11-28  inc covid hosp      -2 US       quantile              0.01    NA
#>  6 2022-11-28  inc covid hosp      -1 US       quantile              0.01    NA
#>  7 2022-11-28  inc covid hosp       0 US       quantile              0.01    NA
#>  8 2022-11-28  inc covid hosp       1 US       quantile              0.01    NA
#>  9 2022-11-28  inc covid hosp       2 US       quantile              0.01    NA
#> 10 2022-11-28  inc covid hosp       3 US       quantile              0.01    NA
#> # ℹ 26,072 more rows
# Create submission file using config file from AWS S3 bucket hub
# Use `s3_bucket()` to create a path to the hub's root directory
s3_hub_path <- arrow::s3_bucket("hubverse/hubutils/testhubs/simple/")
submission_tmpl(
  path = s3_hub_path,
  round_id = "2022-10-01",
  output_types = "quantile"
)
#> ℹ Updating superseded URL `Infectious-Disease-Modeling-hubs` to `hubverse-org`
#> # A tibble: 4,968 × 7
#>    origin_date target          horizon location output_type output_type_id value
#>    <date>      <chr>             <int> <chr>    <chr>                <dbl> <int>
#>  1 2022-10-01  wk inc flu hosp       1 US       quantile              0.01    NA
#>  2 2022-10-01  wk inc flu hosp       2 US       quantile              0.01    NA
#>  3 2022-10-01  wk inc flu hosp       3 US       quantile              0.01    NA
#>  4 2022-10-01  wk inc flu hosp       4 US       quantile              0.01    NA
#>  5 2022-10-01  wk inc flu hosp       1 01       quantile              0.01    NA
#>  6 2022-10-01  wk inc flu hosp       2 01       quantile              0.01    NA
#>  7 2022-10-01  wk inc flu hosp       3 01       quantile              0.01    NA
#>  8 2022-10-01  wk inc flu hosp       4 01       quantile              0.01    NA
#>  9 2022-10-01  wk inc flu hosp       1 02       quantile              0.01    NA
#> 10 2022-10-01  wk inc flu hosp       2 02       quantile              0.01    NA
#> # ℹ 4,958 more rows
# Use `path()` method to create a path to the tasks.json file relative to the
# the S3 cloud hub's root directory
s3_config_path <- s3_hub_path$path("hub-config/tasks.json")
submission_tmpl(
  path = s3_config_path,
  round_id = "2022-10-01",
  output_types = "quantile"
)
#> ℹ Updating superseded URL `Infectious-Disease-Modeling-hubs` to `hubverse-org`
#> # A tibble: 4,968 × 7
#>    origin_date target          horizon location output_type output_type_id value
#>    <date>      <chr>             <int> <chr>    <chr>                <dbl> <int>
#>  1 2022-10-01  wk inc flu hosp       1 US       quantile              0.01    NA
#>  2 2022-10-01  wk inc flu hosp       2 US       quantile              0.01    NA
#>  3 2022-10-01  wk inc flu hosp       3 US       quantile              0.01    NA
#>  4 2022-10-01  wk inc flu hosp       4 US       quantile              0.01    NA
#>  5 2022-10-01  wk inc flu hosp       1 01       quantile              0.01    NA
#>  6 2022-10-01  wk inc flu hosp       2 01       quantile              0.01    NA
#>  7 2022-10-01  wk inc flu hosp       3 01       quantile              0.01    NA
#>  8 2022-10-01  wk inc flu hosp       4 01       quantile              0.01    NA
#>  9 2022-10-01  wk inc flu hosp       1 02       quantile              0.01    NA
#> 10 2022-10-01  wk inc flu hosp       2 02       quantile              0.01    NA
#> # ℹ 4,958 more rows
```
